{"failedCount":1,"prefixedPath":"src\/test\/java\/features\/reto_karate.feature","packageQualifiedName":"src.test.java.features.reto_karate","loopIndex":-1,"relativePath":"src\/test\/java\/features\/reto_karate.feature","scenarioResults":[{"sectionIndex":0,"stepResults":[{"result":{"nanos":179795100,"millis":179.7951,"status":"passed"},"step":{"background":true,"line":4,"prefix":"*","index":0,"text":"url 'https:\/\/reqres.in\/api'"}},{"result":{"nanos":355784300,"millis":355.7843,"status":"passed"},"step":{"background":true,"line":5,"prefix":"*","index":1,"text":"configure ssl = true"}},{"result":{"nanos":779800,"millis":0.7798,"status":"passed"},"step":{"line":9,"prefix":"Given","index":0,"text":"path '\/users?page=2'"}},{"result":{"nanos":967577800,"millis":967.5778,"status":"passed"},"step":{"line":10,"prefix":"When","index":1,"text":"method get"},"stepLog":"15:59:49.501 request:\n1 > GET https:\/\/reqres.in\/api\/users%3Fpage=2\n1 > Host: reqres.in\n1 > Connection: Keep-Alive\n1 > User-Agent: Apache-HttpClient\/4.5.13 (Java\/17.0.11)\n1 > Accept-Encoding: gzip,deflate\n\n\n15:59:50.250 response time in milliseconds: 745\n1 < 200\n1 < Date: Mon, 24 Mar 2025 20:59:50 GMT\n1 < Content-Type: application\/json; charset=utf-8\n1 < Transfer-Encoding: chunked\n1 < Connection: keep-alive\n1 < Report-To: {\"group\":\"heroku-nel\",\"max_age\":3600,\"endpoints\":[{\"url\":\"https:\/\/nel.heroku.com\/reports?ts=1742849794&sid=c4c9725f-1ab0-44d8-820f-430df2718e11&s=y1pLCCXWWAV54jFfYSs0W74wu9wM%2Fu4FsWuvCziLX7s%3D\"}]}\n1 < Reporting-Endpoints: heroku-nel=https:\/\/nel.heroku.com\/reports?ts=1742849794&sid=c4c9725f-1ab0-44d8-820f-430df2718e11&s=y1pLCCXWWAV54jFfYSs0W74wu9wM%2Fu4FsWuvCziLX7s%3D\n1 < Nel: {\"report_to\":\"heroku-nel\",\"max_age\":3600,\"success_fraction\":0.005,\"failure_fraction\":0.05,\"response_headers\":[\"Via\"]}\n1 < X-Powered-By: Express\n1 < Access-Control-Allow-Origin: *\n1 < Etag: W\/\"2fb-zJ\/iiAzm4zf7SruyfEtNo0xEDoY\"\n1 < Via: 1.1 vegur\n1 < Cache-Control: max-age=14400\n1 < CF-Cache-Status: HIT\n1 < Age: 196\n1 < Vary: Accept-Encoding\n1 < Server: cloudflare\n1 < CF-RAY: 9259183b4c20a16c-GRU\n1 < server-timing: cfL4;desc=\"?proto=TCP&rtt=142277&min_rtt=139876&rtt_var=54168&sent=6&recv=7&lost=0&retrans=0&sent_bytes=3109&recv_bytes=765&delivery_rate=30241&cwnd=245&unsent_bytes=0&cid=9a4613c22a9cf677&ts=255&x=0\"\n{\"page\":1,\"per_page\":6,\"total\":12,\"total_pages\":2,\"data\":[{\"id\":1,\"name\":\"cerulean\",\"year\":2000,\"color\":\"#98B2D1\",\"pantone_value\":\"15-4020\"},{\"id\":2,\"name\":\"fuchsia rose\",\"year\":2001,\"color\":\"#C74375\",\"pantone_value\":\"17-2031\"},{\"id\":3,\"name\":\"true red\",\"year\":2002,\"color\":\"#BF1932\",\"pantone_value\":\"19-1664\"},{\"id\":4,\"name\":\"aqua sky\",\"year\":2003,\"color\":\"#7BC4C4\",\"pantone_value\":\"14-4811\"},{\"id\":5,\"name\":\"tigerlily\",\"year\":2004,\"color\":\"#E2583E\",\"pantone_value\":\"17-1456\"},{\"id\":6,\"name\":\"blue turquoise\",\"year\":2005,\"color\":\"#53B0AE\",\"pantone_value\":\"15-5217\"}],\"support\":{\"url\":\"https:\/\/contentcaddy.io?utm_source=reqres&utm_medium=json&utm_campaign=referral\",\"text\":\"Tired of writing endless social media content? Let Content Caddy generate it for you.\"}}\n"},{"result":{"nanos":35500,"millis":0.0355,"status":"passed"},"step":{"line":11,"prefix":"Then","index":2,"text":"status 200"}},{"result":{"nanos":96369100,"millis":96.3691,"status":"passed"},"step":{"line":12,"prefix":"And","index":3,"text":"assert response.data != null"}},{"result":{"nanos":32473300,"errorMessage":"js failed:\n>>>>\n01: response.data.length > 0    # Verifica que 'data' tenga al menos un elemento\n<<<<\norg.graalvm.polyglot.PolyglotException: SyntaxError: Unnamed:1:28 Expected ; but found error\r\nresponse.data.length > 0    # Verifica que 'data' tenga al menos un elemento\r\n                            ^\n\n- org.graalvm.polyglot.Context.eval(Context.java:401)\n- com.intuit.karate.graal.JsEngine.evalForValue(JsEngine.java:141)\n- com.intuit.karate.graal.JsEngine.eval(JsEngine.java:137)\n- com.intuit.karate.core.ScenarioEngine.evalJs(ScenarioEngine.java:1252)\n- com.intuit.karate.core.ScenarioEngine.assertTrue(ScenarioEngine.java:232)\n- com.intuit.karate.ScenarioActions.assertTrue(ScenarioActions.java:242)\n- java.base\/jdk.internal.reflect.NativeMethodAccessorImpl.invoke0(Native Method)\n\nsrc\/test\/java\/features\/reto_karate.feature:13","millis":32.4733,"status":"failed"},"step":{"line":13,"prefix":"And","index":4,"text":"assert response.data.length > 0    # Verifica que 'data' tenga al menos un elemento"},"stepLog":"15:59:50.434 src\/test\/java\/features\/reto_karate.feature:13\nAnd assert response.data.length > 0    # Verifica que 'data' tenga al menos un elemento\njs failed:\n>>>>\n01: response.data.length > 0    # Verifica que 'data' tenga al menos un elemento\n<<<<\norg.graalvm.polyglot.PolyglotException: SyntaxError: Unnamed:1:28 Expected ; but found error\r\nresponse.data.length > 0    # Verifica que 'data' tenga al menos un elemento\r\n                            ^\n\n- org.graalvm.polyglot.Context.eval(Context.java:401)\n- com.intuit.karate.graal.JsEngine.evalForValue(JsEngine.java:141)\n- com.intuit.karate.graal.JsEngine.eval(JsEngine.java:137)\n- com.intuit.karate.core.ScenarioEngine.evalJs(ScenarioEngine.java:1252)\n- com.intuit.karate.core.ScenarioEngine.assertTrue(ScenarioEngine.java:232)\n- com.intuit.karate.ScenarioActions.assertTrue(ScenarioActions.java:242)\n- java.base\/jdk.internal.reflect.NativeMethodAccessorImpl.invoke0(Native Method)\n\nsrc\/test\/java\/features\/reto_karate.feature:13\n"},{"result":{"nanos":0,"millis":0.0,"status":"skipped"},"step":{"line":14,"prefix":"And","index":5,"text":"match response.data[0].id == '#number'   # Verifica que el primer usuario tenga un ID numérico"}}],"line":8,"description":"","durationMillis":1632.8149,"failed":true,"error":"js failed:\n>>>>\n01: response.data.length > 0    # Verifica que 'data' tenga al menos un elemento\n<<<<\norg.graalvm.polyglot.PolyglotException: SyntaxError: Unnamed:1:28 Expected ; but found error\r\nresponse.data.length > 0    # Verifica que 'data' tenga al menos un elemento\r\n                            ^\n\n- org.graalvm.polyglot.Context.eval(Context.java:401)\n- com.intuit.karate.graal.JsEngine.evalForValue(JsEngine.java:141)\n- com.intuit.karate.graal.JsEngine.eval(JsEngine.java:137)\n- com.intuit.karate.core.ScenarioEngine.evalJs(ScenarioEngine.java:1252)\n- com.intuit.karate.core.ScenarioEngine.assertTrue(ScenarioEngine.java:232)\n- com.intuit.karate.ScenarioActions.assertTrue(ScenarioActions.java:242)\n- java.base\/jdk.internal.reflect.NativeMethodAccessorImpl.invoke0(Native Method)\n\nsrc\/test\/java\/features\/reto_karate.feature:13","tags":["obtener_lista_usuarios_reqres"],"executorName":"main","name":"Validar que se puede obtener una lista de usuarios de la API Reqres","startTime":1742849988782,"refId":"[1:8]","endTime":1742849990434,"exampleIndex":-1}],"callDepth":0,"name":"Obtener lista de usuarios - Reto Karate","description":"","resultDate":"2025-03-24 03:59:50 p. m.","durationMillis":1632.8149,"passedCount":0}