{"failedCount":0,"prefixedPath":"src\/test\/java\/features\/reto_karate.feature","packageQualifiedName":"src.test.java.features.reto_karate","loopIndex":-1,"relativePath":"src\/test\/java\/features\/reto_karate.feature","scenarioResults":[{"sectionIndex":0,"stepResults":[{"result":{"nanos":154940400,"millis":154.9404,"status":"passed"},"step":{"background":true,"line":4,"prefix":"*","index":0,"text":"url 'https:\/\/reqres.in\/api'"}},{"result":{"nanos":399546300,"millis":399.5463,"status":"passed"},"step":{"background":true,"line":5,"prefix":"*","index":1,"text":"configure ssl = true"}},{"result":{"nanos":936900,"millis":0.9369,"status":"passed"},"step":{"line":9,"prefix":"Given","index":0,"text":"path '\/users?page=2'"}},{"result":{"nanos":916179600,"millis":916.1796,"status":"passed"},"step":{"line":10,"prefix":"When","index":1,"text":"method get"},"stepLog":"16:00:23.704 request:\n1 > GET https:\/\/reqres.in\/api\/users%3Fpage=2\n1 > Host: reqres.in\n1 > Connection: Keep-Alive\n1 > User-Agent: Apache-HttpClient\/4.5.13 (Java\/17.0.11)\n1 > Accept-Encoding: gzip,deflate\n\n\n16:00:24.425 response time in milliseconds: 718\n1 < 200\n1 < Date: Mon, 24 Mar 2025 21:00:25 GMT\n1 < Content-Type: application\/json; charset=utf-8\n1 < Transfer-Encoding: chunked\n1 < Connection: keep-alive\n1 < Report-To: {\"group\":\"heroku-nel\",\"max_age\":3600,\"endpoints\":[{\"url\":\"https:\/\/nel.heroku.com\/reports?ts=1742849794&sid=c4c9725f-1ab0-44d8-820f-430df2718e11&s=y1pLCCXWWAV54jFfYSs0W74wu9wM%2Fu4FsWuvCziLX7s%3D\"}]}\n1 < Reporting-Endpoints: heroku-nel=https:\/\/nel.heroku.com\/reports?ts=1742849794&sid=c4c9725f-1ab0-44d8-820f-430df2718e11&s=y1pLCCXWWAV54jFfYSs0W74wu9wM%2Fu4FsWuvCziLX7s%3D\n1 < Nel: {\"report_to\":\"heroku-nel\",\"max_age\":3600,\"success_fraction\":0.005,\"failure_fraction\":0.05,\"response_headers\":[\"Via\"]}\n1 < X-Powered-By: Express\n1 < Access-Control-Allow-Origin: *\n1 < Etag: W\/\"2fb-zJ\/iiAzm4zf7SruyfEtNo0xEDoY\"\n1 < Via: 1.1 vegur\n1 < Cache-Control: max-age=14400\n1 < CF-Cache-Status: HIT\n1 < Age: 231\n1 < Vary: Accept-Encoding\n1 < Server: cloudflare\n1 < CF-RAY: 9259191108f61a9a-GRU\n1 < server-timing: cfL4;desc=\"?proto=TCP&rtt=103196&min_rtt=99848&rtt_var=44139&sent=5&recv=7&lost=0&retrans=0&sent_bytes=3109&recv_bytes=765&delivery_rate=33403&cwnd=248&unsent_bytes=0&cid=9be7b6f38c000363&ts=236&x=0\"\n{\"page\":1,\"per_page\":6,\"total\":12,\"total_pages\":2,\"data\":[{\"id\":1,\"name\":\"cerulean\",\"year\":2000,\"color\":\"#98B2D1\",\"pantone_value\":\"15-4020\"},{\"id\":2,\"name\":\"fuchsia rose\",\"year\":2001,\"color\":\"#C74375\",\"pantone_value\":\"17-2031\"},{\"id\":3,\"name\":\"true red\",\"year\":2002,\"color\":\"#BF1932\",\"pantone_value\":\"19-1664\"},{\"id\":4,\"name\":\"aqua sky\",\"year\":2003,\"color\":\"#7BC4C4\",\"pantone_value\":\"14-4811\"},{\"id\":5,\"name\":\"tigerlily\",\"year\":2004,\"color\":\"#E2583E\",\"pantone_value\":\"17-1456\"},{\"id\":6,\"name\":\"blue turquoise\",\"year\":2005,\"color\":\"#53B0AE\",\"pantone_value\":\"15-5217\"}],\"support\":{\"url\":\"https:\/\/contentcaddy.io?utm_source=reqres&utm_medium=json&utm_campaign=referral\",\"text\":\"Tired of writing endless social media content? Let Content Caddy generate it for you.\"}}\n"},{"result":{"nanos":30900,"millis":0.0309,"status":"passed"},"step":{"line":11,"prefix":"Then","index":2,"text":"status 200"}},{"result":{"nanos":89864900,"millis":89.8649,"status":"passed"},"step":{"line":12,"prefix":"And","index":3,"text":"assert response.data != null"}},{"result":{"nanos":17987400,"millis":17.9874,"status":"passed"},"step":{"line":13,"prefix":"And","index":4,"text":"assert response.data.length > 0"}},{"result":{"nanos":57075700,"millis":57.0757,"status":"passed"},"step":{"line":14,"prefix":"And","index":5,"text":"match response.data[0].id == '#number'"}}],"line":8,"description":"","durationMillis":1636.5621,"failed":false,"tags":["obtener_lista_usuarios_reqres"],"executorName":"main","name":"Validar que se puede obtener una lista de usuarios de la API Reqres","startTime":1742850022979,"refId":"[1:8]","endTime":1742850024634,"exampleIndex":-1}],"callDepth":0,"name":"Obtener lista de usuarios - Reto Karate","description":"","resultDate":"2025-03-24 04:00:24 p. m.","durationMillis":1636.5621,"passedCount":1}