{"failedCount":1,"prefixedPath":"src\/test\/java\/features\/reto_karate.feature","packageQualifiedName":"src.test.java.features.reto_karate","loopIndex":-1,"relativePath":"src\/test\/java\/features\/reto_karate.feature","scenarioResults":[{"sectionIndex":0,"stepResults":[{"result":{"nanos":161761000,"millis":161.761,"status":"passed"},"step":{"background":true,"line":4,"prefix":"*","index":0,"text":"url 'https:\/\/reqres.in\/api'"}},{"result":{"nanos":407576800,"millis":407.5768,"status":"passed"},"step":{"background":true,"line":5,"prefix":"*","index":1,"text":"configure ssl = true"}},{"result":{"nanos":850200,"millis":0.8502,"status":"passed"},"step":{"line":9,"prefix":"Given","index":0,"text":"path '\/users?page=2'"}},{"result":{"nanos":1369732600,"millis":1369.7326,"status":"passed"},"step":{"line":10,"prefix":"When","index":1,"text":"method get"},"stepLog":"15:58:03.057 request:\n1 > GET https:\/\/reqres.in\/api\/users%3Fpage=2\n1 > Host: reqres.in\n1 > Connection: Keep-Alive\n1 > User-Agent: Apache-HttpClient\/4.5.13 (Java\/17.0.11)\n1 > Accept-Encoding: gzip,deflate\n\n\n15:58:04.192 response time in milliseconds: 1132\n1 < 200\n1 < Date: Mon, 24 Mar 2025 20:58:04 GMT\n1 < Content-Type: application\/json; charset=utf-8\n1 < Transfer-Encoding: chunked\n1 < Connection: keep-alive\n1 < Report-To: {\"group\":\"heroku-nel\",\"max_age\":3600,\"endpoints\":[{\"url\":\"https:\/\/nel.heroku.com\/reports?ts=1742849794&sid=c4c9725f-1ab0-44d8-820f-430df2718e11&s=y1pLCCXWWAV54jFfYSs0W74wu9wM%2Fu4FsWuvCziLX7s%3D\"}]}\n1 < Reporting-Endpoints: heroku-nel=https:\/\/nel.heroku.com\/reports?ts=1742849794&sid=c4c9725f-1ab0-44d8-820f-430df2718e11&s=y1pLCCXWWAV54jFfYSs0W74wu9wM%2Fu4FsWuvCziLX7s%3D\n1 < Nel: {\"report_to\":\"heroku-nel\",\"max_age\":3600,\"success_fraction\":0.005,\"failure_fraction\":0.05,\"response_headers\":[\"Via\"]}\n1 < X-Powered-By: Express\n1 < Access-Control-Allow-Origin: *\n1 < Etag: W\/\"2fb-zJ\/iiAzm4zf7SruyfEtNo0xEDoY\"\n1 < Via: 1.1 vegur\n1 < Cache-Control: max-age=14400\n1 < CF-Cache-Status: HIT\n1 < Age: 90\n1 < Vary: Accept-Encoding\n1 < Server: cloudflare\n1 < CF-RAY: 925915a478b7a18f-GRU\n1 < server-timing: cfL4;desc=\"?proto=TCP&rtt=112981&min_rtt=109220&rtt_var=48480&sent=9&recv=8&lost=0&retrans=2&sent_bytes=4808&recv_bytes=765&delivery_rate=11718&cwnd=251&unsent_bytes=0&cid=c232343170f82e55&ts=674&x=0\"\n{\"page\":1,\"per_page\":6,\"total\":12,\"total_pages\":2,\"data\":[{\"id\":1,\"name\":\"cerulean\",\"year\":2000,\"color\":\"#98B2D1\",\"pantone_value\":\"15-4020\"},{\"id\":2,\"name\":\"fuchsia rose\",\"year\":2001,\"color\":\"#C74375\",\"pantone_value\":\"17-2031\"},{\"id\":3,\"name\":\"true red\",\"year\":2002,\"color\":\"#BF1932\",\"pantone_value\":\"19-1664\"},{\"id\":4,\"name\":\"aqua sky\",\"year\":2003,\"color\":\"#7BC4C4\",\"pantone_value\":\"14-4811\"},{\"id\":5,\"name\":\"tigerlily\",\"year\":2004,\"color\":\"#E2583E\",\"pantone_value\":\"17-1456\"},{\"id\":6,\"name\":\"blue turquoise\",\"year\":2005,\"color\":\"#53B0AE\",\"pantone_value\":\"15-5217\"}],\"support\":{\"url\":\"https:\/\/contentcaddy.io?utm_source=reqres&utm_medium=json&utm_campaign=referral\",\"text\":\"Tired of writing endless social media content? Let Content Caddy generate it for you.\"}}\n"},{"result":{"nanos":24400,"millis":0.0244,"status":"passed"},"step":{"line":11,"prefix":"Then","index":2,"text":"status 200"}},{"result":{"nanos":126756000,"errorMessage":"js failed:\n>>>>\n01: '#[]'                # Verifica que 'data' es una lista no vacía\n<<<<\norg.graalvm.polyglot.PolyglotException: SyntaxError: Unnamed:1:21 Expected ; but found error\r\n'#[]'                # Verifica que 'data' es una lista no vacía\r\n                     ^\n\n- org.graalvm.polyglot.Context.eval(Context.java:401)\n- com.intuit.karate.graal.JsEngine.evalForValue(JsEngine.java:141)\n- com.intuit.karate.graal.JsEngine.eval(JsEngine.java:137)\n- com.intuit.karate.core.ScenarioEngine.evalJs(ScenarioEngine.java:1252)\n- com.intuit.karate.core.ScenarioEngine.evalKarateExpression(ScenarioEngine.java:2205)\n- com.intuit.karate.core.ScenarioEngine.match(ScenarioEngine.java:1802)\n- com.intuit.karate.core.ScenarioEngine.matchResult(ScenarioEngine.java:178)\n\nsrc\/test\/java\/features\/reto_karate.feature:12","millis":126.756,"status":"failed"},"step":{"line":12,"prefix":"And","index":3,"text":"match response.data == '#[]'                # Verifica que 'data' es una lista no vacía"},"stepLog":"15:58:04.369 src\/test\/java\/features\/reto_karate.feature:12\nAnd match response.data == '#[]'                # Verifica que 'data' es una lista no vacía\njs failed:\n>>>>\n01: '#[]'                # Verifica que 'data' es una lista no vacía\n<<<<\norg.graalvm.polyglot.PolyglotException: SyntaxError: Unnamed:1:21 Expected ; but found error\r\n'#[]'                # Verifica que 'data' es una lista no vacía\r\n                     ^\n\n- org.graalvm.polyglot.Context.eval(Context.java:401)\n- com.intuit.karate.graal.JsEngine.evalForValue(JsEngine.java:141)\n- com.intuit.karate.graal.JsEngine.eval(JsEngine.java:137)\n- com.intuit.karate.core.ScenarioEngine.evalJs(ScenarioEngine.java:1252)\n- com.intuit.karate.core.ScenarioEngine.evalKarateExpression(ScenarioEngine.java:2205)\n- com.intuit.karate.core.ScenarioEngine.match(ScenarioEngine.java:1802)\n- com.intuit.karate.core.ScenarioEngine.matchResult(ScenarioEngine.java:178)\n\nsrc\/test\/java\/features\/reto_karate.feature:12\n"},{"result":{"nanos":0,"millis":0.0,"status":"skipped"},"step":{"line":13,"prefix":"And","index":4,"text":"match response.data[0].id == '#number'       # Verifica que el primer usuario tenga un ID numérico"}}],"line":8,"description":"","durationMillis":2066.701,"failed":true,"error":"js failed:\n>>>>\n01: '#[]'                # Verifica que 'data' es una lista no vacía\n<<<<\norg.graalvm.polyglot.PolyglotException: SyntaxError: Unnamed:1:21 Expected ; but found error\r\n'#[]'                # Verifica que 'data' es una lista no vacía\r\n                     ^\n\n- org.graalvm.polyglot.Context.eval(Context.java:401)\n- com.intuit.karate.graal.JsEngine.evalForValue(JsEngine.java:141)\n- com.intuit.karate.graal.JsEngine.eval(JsEngine.java:137)\n- com.intuit.karate.core.ScenarioEngine.evalJs(ScenarioEngine.java:1252)\n- com.intuit.karate.core.ScenarioEngine.evalKarateExpression(ScenarioEngine.java:2205)\n- com.intuit.karate.core.ScenarioEngine.match(ScenarioEngine.java:1802)\n- com.intuit.karate.core.ScenarioEngine.matchResult(ScenarioEngine.java:178)\n\nsrc\/test\/java\/features\/reto_karate.feature:12","tags":["obtener_lista_usuarios_reqres"],"executorName":"main","name":"Validar que se puede obtener una lista de usuarios de la API Reqres","startTime":1742849882281,"refId":"[1:8]","endTime":1742849884369,"exampleIndex":-1}],"callDepth":0,"name":"Obtener lista de usuarios - Reto Karate","description":"","resultDate":"2025-03-24 03:58:04 p. m.","durationMillis":2066.701,"passedCount":0}