{"failedCount":1,"prefixedPath":"classpath:features\/reto_karate.feature","packageQualifiedName":"features.reto_karate","loopIndex":-1,"relativePath":"features\/reto_karate.feature","scenarioResults":[{"sectionIndex":0,"stepResults":[{"result":{"nanos":2608600,"millis":2.6086,"status":"passed"},"step":{"background":true,"line":4,"prefix":"*","index":0,"text":"url 'https:\/\/reqres.in\/api'"}},{"result":{"nanos":591302400,"millis":591.3024,"status":"passed"},"step":{"background":true,"line":5,"prefix":"*","index":1,"text":"configure ssl = true"}},{"result":{"nanos":927800,"millis":0.9278,"status":"passed"},"step":{"line":9,"prefix":"Given","index":0,"text":"path '\/users'"}},{"result":{"nanos":1045998200,"millis":1045.9982,"status":"passed"},"step":{"line":10,"prefix":"When","index":1,"text":"method get"},"stepLog":"15:43:02.090 request:\n1 > GET https:\/\/reqres.in\/api\/users\n1 > Host: reqres.in\n1 > Connection: Keep-Alive\n1 > User-Agent: Apache-HttpClient\/4.5.13 (Java\/17.0.11)\n1 > Accept-Encoding: gzip,deflate\n\n\n15:43:02.852 response time in milliseconds: 759\n1 < 200\n1 < Date: Mon, 24 Mar 2025 20:43:03 GMT\n1 < Content-Type: application\/json; charset=utf-8\n1 < Transfer-Encoding: chunked\n1 < Connection: keep-alive\n1 < Report-To: {\"group\":\"heroku-nel\",\"max_age\":3600,\"endpoints\":[{\"url\":\"https:\/\/nel.heroku.com\/reports?ts=1742387856&sid=c4c9725f-1ab0-44d8-820f-430df2718e11&s=URd%2FY9nrejoY5pDu53XQvV1fR8%2BuW9hzadoc6IEiOIk%3D\"}]}\n1 < Reporting-Endpoints: heroku-nel=https:\/\/nel.heroku.com\/reports?ts=1742387856&sid=c4c9725f-1ab0-44d8-820f-430df2718e11&s=URd%2FY9nrejoY5pDu53XQvV1fR8%2BuW9hzadoc6IEiOIk%3D\n1 < Nel: {\"report_to\":\"heroku-nel\",\"max_age\":3600,\"success_fraction\":0.005,\"failure_fraction\":0.05,\"response_headers\":[\"Via\"]}\n1 < X-Powered-By: Express\n1 < Access-Control-Allow-Origin: *\n1 < Etag: W\/\"41e-bY3U72nulxuwNd\/TmihMEHjLmek\"\n1 < Via: 1.1 vegur\n1 < Cache-Control: max-age=14400\n1 < CF-Cache-Status: HIT\n1 < Age: 2133\n1 < Vary: Accept-Encoding\n1 < Server: cloudflare\n1 < CF-RAY: 9258ffa2ed811a91-GRU\n1 < server-timing: cfL4;desc=\"?proto=TCP&rtt=106290&min_rtt=106056&rtt_var=40239&sent=7&recv=7&lost=0&retrans=0&sent_bytes=3110&recv_bytes=756&delivery_rate=39191&cwnd=251&unsent_bytes=0&cid=743652938d1c61e3&ts=202&x=0\"\n{\"page\":1,\"per_page\":6,\"total\":12,\"total_pages\":2,\"data\":[{\"id\":1,\"email\":\"george.bluth@reqres.in\",\"first_name\":\"George\",\"last_name\":\"Bluth\",\"avatar\":\"https:\/\/reqres.in\/img\/faces\/1-image.jpg\"},{\"id\":2,\"email\":\"janet.weaver@reqres.in\",\"first_name\":\"Janet\",\"last_name\":\"Weaver\",\"avatar\":\"https:\/\/reqres.in\/img\/faces\/2-image.jpg\"},{\"id\":3,\"email\":\"emma.wong@reqres.in\",\"first_name\":\"Emma\",\"last_name\":\"Wong\",\"avatar\":\"https:\/\/reqres.in\/img\/faces\/3-image.jpg\"},{\"id\":4,\"email\":\"eve.holt@reqres.in\",\"first_name\":\"Eve\",\"last_name\":\"Holt\",\"avatar\":\"https:\/\/reqres.in\/img\/faces\/4-image.jpg\"},{\"id\":5,\"email\":\"charles.morris@reqres.in\",\"first_name\":\"Charles\",\"last_name\":\"Morris\",\"avatar\":\"https:\/\/reqres.in\/img\/faces\/5-image.jpg\"},{\"id\":6,\"email\":\"tracey.ramos@reqres.in\",\"first_name\":\"Tracey\",\"last_name\":\"Ramos\",\"avatar\":\"https:\/\/reqres.in\/img\/faces\/6-image.jpg\"}],\"support\":{\"url\":\"https:\/\/contentcaddy.io?utm_source=reqres&utm_medium=json&utm_campaign=referral\",\"text\":\"Tired of writing endless social media content? Let Content Caddy generate it for you.\"}}\n"},{"result":{"nanos":47300,"millis":0.0473,"status":"passed"},"step":{"line":11,"prefix":"Then","index":2,"text":"status 200"}},{"result":{"nanos":112599600,"errorMessage":"js failed:\n>>>>\n01: '#[]'  # Verifica que la respuesta contenga una lista\n<<<<\norg.graalvm.polyglot.PolyglotException: SyntaxError: Unnamed:1:7 Expected ; but found error\r\n'#[]'  # Verifica que la respuesta contenga una lista\r\n       ^\n\n- org.graalvm.polyglot.Context.eval(Context.java:401)\n- com.intuit.karate.graal.JsEngine.evalForValue(JsEngine.java:141)\n- com.intuit.karate.graal.JsEngine.eval(JsEngine.java:137)\n- com.intuit.karate.core.ScenarioEngine.evalJs(ScenarioEngine.java:1252)\n- com.intuit.karate.core.ScenarioEngine.evalKarateExpression(ScenarioEngine.java:2205)\n- com.intuit.karate.core.ScenarioEngine.match(ScenarioEngine.java:1802)\n- com.intuit.karate.core.ScenarioEngine.matchResult(ScenarioEngine.java:178)\n\nclasspath:features\/reto_karate.feature:12","millis":112.5996,"status":"failed"},"step":{"line":12,"prefix":"And","index":3,"text":"match response.data == '#[]'  # Verifica que la respuesta contenga una lista"},"stepLog":"15:43:03.019 classpath:features\/reto_karate.feature:12\nAnd match response.data == '#[]'  # Verifica que la respuesta contenga una lista\njs failed:\n>>>>\n01: '#[]'  # Verifica que la respuesta contenga una lista\n<<<<\norg.graalvm.polyglot.PolyglotException: SyntaxError: Unnamed:1:7 Expected ; but found error\r\n'#[]'  # Verifica que la respuesta contenga una lista\r\n       ^\n\n- org.graalvm.polyglot.Context.eval(Context.java:401)\n- com.intuit.karate.graal.JsEngine.evalForValue(JsEngine.java:141)\n- com.intuit.karate.graal.JsEngine.eval(JsEngine.java:137)\n- com.intuit.karate.core.ScenarioEngine.evalJs(ScenarioEngine.java:1252)\n- com.intuit.karate.core.ScenarioEngine.evalKarateExpression(ScenarioEngine.java:2205)\n- com.intuit.karate.core.ScenarioEngine.match(ScenarioEngine.java:1802)\n- com.intuit.karate.core.ScenarioEngine.matchResult(ScenarioEngine.java:178)\n\nclasspath:features\/reto_karate.feature:12\n"},{"result":{"nanos":0,"millis":0.0,"status":"skipped"},"step":{"line":13,"prefix":"And","index":4,"text":"match response.data[0].id == '#number'  # Confirma que el primer usuario tenga un ID numérico"}}],"line":8,"description":"","durationMillis":1753.4839,"failed":true,"error":"js failed:\n>>>>\n01: '#[]'  # Verifica que la respuesta contenga una lista\n<<<<\norg.graalvm.polyglot.PolyglotException: SyntaxError: Unnamed:1:7 Expected ; but found error\r\n'#[]'  # Verifica que la respuesta contenga una lista\r\n       ^\n\n- org.graalvm.polyglot.Context.eval(Context.java:401)\n- com.intuit.karate.graal.JsEngine.evalForValue(JsEngine.java:141)\n- com.intuit.karate.graal.JsEngine.eval(JsEngine.java:137)\n- com.intuit.karate.core.ScenarioEngine.evalJs(ScenarioEngine.java:1252)\n- com.intuit.karate.core.ScenarioEngine.evalKarateExpression(ScenarioEngine.java:2205)\n- com.intuit.karate.core.ScenarioEngine.match(ScenarioEngine.java:1802)\n- com.intuit.karate.core.ScenarioEngine.matchResult(ScenarioEngine.java:178)\n\nclasspath:features\/reto_karate.feature:12","tags":["obtener_lista_usuarios_regres"],"executorName":"main","name":"Validar que se puede obtener una lista de usuarios, de la página reqres.in","startTime":1742848981245,"refId":"[1:8]","endTime":1742848983019,"exampleIndex":-1}],"callDepth":0,"name":"Obtener lista de usuarios - Reto Karate","description":"","resultDate":"2025-03-24 03:43:03 p. m.","durationMillis":1753.4839,"passedCount":0}